=====================       E_Map for Round 1          ======================

==============  Number of Model Checker Invocation : xxx ==============================

G59	-->	{   E75   }
G60	-->	{   E76   }
G61	-->	{   E77   }
G62	-->	{   E78   }
G63	-->	{   E79   }
G64	-->	{   E80   }
G65	-->	{   E81   }
G66	-->	{   E82   }
G67	-->	{   E83   }
G68	-->	{   E84   }
G69	-->	{   E85   }
G70	-->	{   E86   }
G71	-->	{   E87   }
G72	-->	{   E88   }
G73	-->	{   E89   }
G74	-->	{   E90   }
G75	-->	{   E93   }
G76	-->	{   E94   }
G77	-->	{   E95   }
G78	-->	{   E96   }
G79	-->	{   E98   }
G80	-->	{   E99   }
G81	-->	{   E100   }
G82	-->	{   E101   }
G83	-->	{   E104   }
G84	-->	{   E105   }
G85	-->	{   E106   }
G86	-->	{   E107   }
G87	-->	{   E108   }
G88	-->	{   E109   }
G89	-->	{   E110   }
G90	-->	{   E111   }
G91	-->	{   E119   }
G92	-->	{   E120   }
G93	-->	{   E121   }
G94	-->	{   E122   }
G95	-->	{   E127   }
G96	-->	{   E128   }
G97	-->	{   E129   }
G98	-->	{   E130   }
G99	-->	{   E135   }
G100	-->	{   E136   }
G101	-->	{   E137   }
G102	-->	{   E138   }
G103	-->	{   E139   }
G104	-->	{   E140   }
G105	-->	{   E141   }
G106	-->	{   E142   }
G107	-->	{   E146   }
G108	-->	{   E147   }
G109	-->	{   E148   }
G110	-->	{   E149   }
G111	-->	{   E151   }
G112	-->	{   E153   }
G113	-->	{   E155   }
G114	-->	{   E157   }
G115	-->	{   E158   }
G116	-->	{   E159   }
G117	-->	{   E160   }
G118	-->	{   E161   }
G119	-->	{   E162   }
G120	-->	{   E163   }
G121	-->	{   E164   }
G122	-->	{   E165   }
