AddroundKey		: 303
ShiftRows 		: 305
SubByte 		: 305
MixColumns		: 306
AddroundKey		: 307
ShiftRows  		: 309 
SubByte  		: 309
MixColumns  		: 310
AddroundKey		: 311
ShiftRows  		: 313  
SubByte   		: 313
MixColumns   		: 314
AddroundKey 		: 315
ShiftRows   		: 317
SubByte   		: 317
MixColumns   		: 318
AddroundKey 		: 319
ShiftRows   		: 321
SubByte   		: 321
MixColumns  		: 322
AddroundKey		: 323
ShiftRows  		: 325 
SubByte  		: 325
MixColumns  		: 326
AddroundKey		: 327
ShiftRows  		: 329  
SubByte   		: 329
MixColumns   		: 330
AddroundKey 		: 331
ShiftRows   		: 333
SubByte   		: 333
MixColumns   		: 334
AddroundKey 		: 335
ShiftRows   		: 337
SubByte   		: 337
MixColumns   		: 338
AddroundKey 		: 339
ShiftRows   		: 341
SubByte   		: 341
AddroundKey 		: 342
